Tanzanian Water Pumps
…
Now some features do have too many levels. According to my experience, having such a number of levels could impact model accuracy as well as computational time. I need to find a way to deal with these features.

Lets explore funder:

Training_and_test_set %>%
  group_by(funder) %>%
  tally()

## group_by: one grouping variable (funder)

## tally: now 2,141 rows and 2 columns, ungrouped

## # A tibble: 2,141 x 2
##    funder                            n
##    <fct>                         <int>
##  1 ""                             4504
##  2 "0"                             980
##  3 "A/co Germany"                   19
##  4 "Aar"                            41
##  5 "Abas Ka"                         1
##  6 "Abasia"                         51
##  7 "Abc-ihushi Development Cent"     1
##  8 "Abd"                             8
##  9 "Abdala"                          1
## 10 "Abddwe"                          1
## # ... with 2,131 more rows
…
Lets explore installer:

Training_and_test_set %>%
  group_by(installer) %>%
  tally()

## group_by: one grouping variable (installer)

## tally: now 2,411 rows and 2 columns, ungrouped

## # A tibble: 2,411 x 2
##    installer     n
##    <fct>     <int>
##  1 ""         4532
##  2 "-"           3
##  3 "0"         980
##  4 "A.D.B"       1
##  5 "AAR"         5
##  6 "ABASIA"     34
##  7 "ABD"         1
##  8 "ABDALA"      1
##  9 "ABDUL"       2
## 10 "AC"          5
## # ... with 2,401 more rows
…
Lets explore wpt_name:

Training_and_test_set %>%
  group_by(wpt_name) %>%
  tally()

## group_by: one grouping variable (wpt_name)

## tally: now 45,684 rows and 2 columns, ungrouped

## # A tibble: 45,684 x 2
##    wpt_name            n
##    <fct>           <int>
##  1 24                  2
##  2 A Kulwa             1
##  3 A Saidi             1
##  4 Abass               1
##  5 Abbas               1
##  6 Abdala Hamisi       1
##  7 Abdala Mwandute     1
##  8 Abdalaa             1
##  9 Abdalah             5
## 10 Abdalah Ali         1
## # ... with 45,674 more rows
…
# Convert data type to factor
Training_and_test_set$scheme_management <- as.factor(Training_and_test_set$scheme_management) 

focus: scheme_name

Training_and_test_set %>%
  group_by(scheme_name) %>%
  tally()

## group_by: one grouping variable (scheme_name)

## tally: now 2,869 rows and 2 columns, ungrouped

## # A tibble: 2,869 x 2
##    scheme_name        n
##    <fct>          <int>
##  1 ""             35231
##  2 "14 Kambarage"     6
##  3 "A"               50
##  4 "ADP"             10
##  5 "ADP Simbo"       27
##  6 "ADP Simbu"        2
##  7 "ADRA"            10
##  8 "AIC"              2
##  9 "AIC kahunda"      1
## 10 "AMREF"            4
## # ... with 2,859 more rows
…
